<?xml version="1.0" encoding="UTF-8"?>
<svg xmlns="http://www.w3.org/2000/svg" version="1.1"
     width="1000" height="600"
     viewBox="0 0 1000 600">
    <title>France</title>
    <desc>Flag of France</desc>
        <rect x="0"   y="0" width="333" height="600" fill="#0055a4"/>
        <rect x="333" y="0" width="334" height="600" fill="#ffffff"/>
        <rect x="667" y="0" width="333" height="600" fill="#ef4135"/>
</svg>
