<?xml version="1.0" encoding="UTF-8"?>
<svg xmlns="http://www.w3.org/2000/svg" version="1.1"
     width="1000" height="600"
     viewBox="0 0 1000 600">
    <title>Poland</title>
    <desc>Flag of Poland</desc>
    <rect x="0" y="0"   width="1000" height="300" fill="#ffffff"/>
    <rect x="0" y="300" width="1000" height="300" fill="#dc143c"/>
</svg>



